br/com/correios/bsb/sigep/master/bean/cliente/SolicitaXmlPlpResponse.class
br/com/correios/bsb/sigep/master/bean/cliente/Pessoa.class
br/com/correios/bsb/sigep/master/bean/cliente/ServicoERP.class
br/com/correios/bsb/sigep/master/bean/cliente/ValePostal.class
br/com/correios/bsb/sigep/master/bean/cliente/ValidarPostagemSimultanea.class
br/com/correios/bsb/sigep/master/bean/cliente/GerenteConta.class
com/mycompany/view/JFUsuario$9.class
br/com/correios/bsb/sigep/master/bean/cliente/SQLException_Exception.class
com/mycompany/view/JFPrincipal$3.class
br/com/correios/bsb/sigep/master/bean/cliente/FechaPlpVariosServicosResponse.class
com/mycompany/view/JFUsuario$3.class
br/com/correios/bsb/sigep/master/bean/cliente/BuscaServicosAdicionaisAtivosResponse.class
br/com/correios/bsb/sigep/master/bean/cliente/AtualizaRemessaAgrupadaResponse.class
br/com/correios/bsb/sigep/master/bean/cliente/UnidadePostagemERP.class
br/com/correios/bsb/sigep/master/bean/cliente/ObjetoPostal.class
br/com/correios/bsb/sigep/master/bean/cliente/Exception_Exception.class
br/com/correios/bsb/sigep/master/bean/cliente/GetStatusPLP.class
br/com/correios/bsb/sigep/master/bean/cliente/TipoMensagem.class
br/com/correios/bsb/sigep/master/bean/cliente/FechaPlp.class
br/com/correios/bsb/sigep/master/bean/cliente/BuscaContratoResponse.class
com/mycompany/view/JFUsuario$4.class
br/com/correios/bsb/sigep/master/bean/cliente/StatusCartao.class
br/com/correios/bsb/sigep/master/bean/cliente/FechaPlpVariosServicos.class
br/com/correios/bsb/sigep/master/bean/cliente/ServicoAdicionalXML.class
br/com/correios/bsb/sigep/master/bean/cliente/PreListaPostagem.class
br/com/correios/bsb/sigep/master/bean/cliente/IntegrarUsuarioScol.class
com/mycompany/view/JFPrincipal$4.class
br/com/correios/bsb/sigep/master/bean/cliente/BuscaPagamentoEntregaResponse.class
br/com/correios/bsb/sigep/master/bean/cliente/AtualizaRemessaAgrupada.class
br/com/correios/bsb/sigep/master/bean/cliente/ColetaSimultanea.class
br/com/correios/bsb/sigep/master/bean/cliente/BuscaCliente.class
br/com/correios/bsb/sigep/master/bean/cliente/StatusObjetoPostal.class
br/com/correios/bsb/sigep/master/bean/cliente/ValidaEtiquetaPLPResponse.class
br/com/correios/bsb/sigep/master/bean/cliente/VerificaSeTodosObjetosCancelados.class
br/com/correios/bsb/sigep/master/bean/cliente/SolicitaEtiquetasResponse.class
com/mycompany/view/JFPrincipal$2.class
br/com/correios/bsb/sigep/master/bean/cliente/ValidarPostagemReversa.class
br/com/correios/bsb/sigep/master/bean/cliente/ChancelaMaster.class
br/com/correios/bsb/sigep/master/bean/cliente/TipoGerente.class
com/mycompany/view/JFPrincipal.class
br/com/correios/bsb/sigep/master/bean/cliente/BuscaPagamentoEntrega.class
br/com/correios/bsb/sigep/master/bean/cliente/Remetente.class
br/com/correios/bsb/sigep/master/bean/cliente/SolicitaPLPResponse.class
br/com/correios/bsb/sigep/master/bean/cliente/ValorDeclarado.class
br/com/correios/bsb/sigep/master/bean/cliente/BuscaServicosXServicosAdicionais.class
br/com/correios/bsb/sigep/master/bean/cliente/BuscaServicosXServicosAdicionaisResponse.class
br/com/correios/bsb/sigep/master/bean/cliente/MensagemParametrizadaTO.class
br/com/correios/bsb/sigep/master/bean/cliente/ServicoAdicionalERP.class
br/com/correios/bsb/sigep/master/bean/cliente/package-info.class
br/com/correios/bsb/sigep/master/bean/cliente/ValidaEtiquetaPLP.class
com/mycompany/view/JFUsuario$7.class
br/com/correios/bsb/sigep/master/bean/cliente/SolicitarPostagemScolResponse.class
br/com/correios/bsb/sigep/master/bean/cliente/TipoBloqueio.class
br/com/correios/bsb/sigep/master/bean/cliente/VerificaModalTransporte.class
br/com/correios/bsb/sigep/master/bean/cliente/StatusGerente.class
br/com/correios/bsb/sigep/master/bean/cliente/ColetaReversa.class
br/com/correios/bsb/sigep/master/bean/cliente/Exception.class
br/com/correios/bsb/sigep/master/bean/cliente/SimNao.class
br/com/correios/bsb/sigep/master/bean/cliente/SolicitarPostagemScol.class
br/com/correios/bsb/sigep/master/bean/cliente/SQLException.class
com/mycompany/model/Usuario.class
br/com/correios/bsb/sigep/master/bean/cliente/ConsultaCEP.class
br/com/correios/bsb/sigep/master/bean/cliente/ErroMontagemRelatorio.class
br/com/correios/bsb/sigep/master/bean/cliente/IntegrarUsuarioScolResponse.class
br/com/correios/bsb/sigep/master/bean/cliente/BuscaServicosAdicionaisAtivos.class
com/mycompany/view/JFPrincipal$1.class
br/com/correios/bsb/sigep/master/bean/cliente/ClienteERP.class
br/com/correios/bsb/sigep/master/bean/cliente/GetStatusCartaoPostagem.class
com/mycompany/view/JFUsuario$8.class
br/com/correios/bsb/sigep/master/bean/cliente/VigenciaERP.class
br/com/correios/bsb/sigep/master/bean/cliente/BuscaClienteResponse.class
br/com/correios/bsb/sigep/master/bean/cliente/GetStatusCartaoPostagemResponse.class
br/com/correios/bsb/sigep/master/bean/cliente/BuscaServicosResponse.class
br/com/correios/bsb/sigep/master/bean/cliente/CancelarPedidoScol.class
br/com/correios/bsb/sigep/master/bean/cliente/AutenticacaoException.class
br/com/correios/bsb/sigep/master/bean/cliente/SolicitaPLP.class
br/com/correios/bsb/sigep/master/bean/cliente/VerificaSeTodosObjetosCanceladosResponse.class
com/mycompany/view/JFUsuario$6.class
br/com/correios/bsb/sigep/master/bean/cliente/BuscaTarifaValeResponse.class
br/com/correios/bsb/sigep/master/bean/cliente/VerificaModalTransporteResponse.class
br/com/correios/bsb/sigep/master/bean/cliente/AtendeClienteService.class
br/com/correios/bsb/sigep/master/bean/cliente/ObterClienteAtualizacao.class
br/com/correios/bsb/sigep/master/bean/cliente/AtendeCliente.class
br/com/correios/bsb/sigep/master/bean/cliente/PesquisarEmbalagensPorServico.class
br/com/correios/bsb/sigep/master/bean/cliente/PesquisarServicosAdicionaisResponse.class
br/com/correios/bsb/sigep/master/bean/cliente/BuscaServicosValorDeclarado.class
br/com/correios/bsb/sigep/master/bean/cliente/AtualizaPagamentoNaEntrega.class
br/com/correios/bsb/sigep/master/bean/cliente/CalculaTarifaServico.class
br/com/correios/bsb/sigep/master/bean/cliente/StatusPlp.class
com/mycompany/view/JFUsuario.class
br/com/correios/bsb/sigep/master/bean/cliente/ObterMensagemParametrizadaResponse.class
br/com/correios/bsb/sigep/master/bean/cliente/CancelarObjeto.class
br/com/correios/bsb/sigep/master/bean/cliente/ValidarPostagemReversaResponse.class
br/com/correios/bsb/sigep/master/bean/cliente/PesquisarParametrosPorDescricaoResponse.class
br/com/correios/bsb/sigep/master/bean/cliente/CalculaTarifaServicoResponse.class
br/com/correios/bsb/sigep/master/bean/cliente/VerificaDisponibilidadeServico.class
br/com/correios/bsb/sigep/master/bean/cliente/BuscaOpcoesResponse.class
br/com/correios/bsb/sigep/master/bean/cliente/Objeto.class
br/com/correios/bsb/sigep/master/bean/cliente/ObjetoSimplificado.class
br/com/correios/bsb/sigep/master/bean/cliente/EnderecoERP.class
br/com/correios/bsb/sigep/master/bean/cliente/PesquisarDimensoesServicoResponse.class
br/com/correios/bsb/sigep/master/bean/cliente/SolicitaXmlPlp.class
br/com/correios/bsb/sigep/master/bean/cliente/PesquisarDimensoesServico.class
br/com/correios/bsb/sigep/master/bean/cliente/MedidaTO.class
br/com/correios/bsb/sigep/master/bean/cliente/ObjetoPostalPK.class
br/com/correios/bsb/sigep/master/bean/cliente/UsuarioInstalacao.class
br/com/correios/bsb/sigep/master/bean/cliente/DimensaoTO.class
br/com/correios/bsb/sigep/master/bean/cliente/GeraDigitoVerificadorEtiquetasResponse.class
com/mycompany/controller/UsuarioDAO.class
br/com/correios/bsb/sigep/master/bean/cliente/RetornoCancelamento.class
br/com/correios/bsb/sigep/master/bean/cliente/EmbalagemLRSMaster.class
com/mycompany/view/JFUsuario$10.class
br/com/correios/bsb/sigep/master/bean/cliente/ContratoERPPK.class
com/mycompany/view/JFUsuario$5.class
br/com/correios/bsb/sigep/master/bean/cliente/ObjectFactory.class
br/com/correios/bsb/sigep/master/bean/cliente/BuscaDataAtual.class
br/com/correios/bsb/sigep/master/bean/cliente/BuscaServicosValorDeclaradoResponse.class
br/com/correios/bsb/sigep/master/bean/cliente/ValidarPostagemSimultaneaResponse.class
br/com/correios/bsb/sigep/master/bean/cliente/ErroMontagemRelatorio_Exception.class
br/com/correios/bsb/sigep/master/bean/cliente/BuscaDataAtualResponse.class
br/com/correios/bsb/sigep/master/bean/cliente/BuscaOpcoes.class
br/com/correios/bsb/sigep/master/bean/cliente/ParametroMaster.class
br/com/correios/bsb/sigep/master/bean/cliente/ValidaPlp.class
br/com/correios/bsb/sigep/master/bean/cliente/ConsultaCEPResponse.class
br/com/correios/bsb/sigep/master/bean/cliente/StatusUsuario.class
br/com/correios/bsb/sigep/master/bean/cliente/PesquisarEmbalagensPorServicoResponse.class
br/com/correios/bsb/sigep/master/bean/cliente/ObterEmbalagemLRSResponse.class
br/com/correios/bsb/sigep/master/bean/cliente/CategoriaServico.class
br/com/correios/bsb/sigep/master/bean/cliente/CartaoPostagemERP.class
br/com/correios/bsb/sigep/master/bean/cliente/PesquisarParametrosPorDescricao.class
br/com/correios/bsb/sigep/master/bean/cliente/SigepClienteException.class
br/com/correios/bsb/sigep/master/bean/cliente/CancelarPedidoScolResponse.class
br/com/correios/bsb/sigep/master/bean/cliente/BloquearObjeto.class
br/com/correios/bsb/sigep/master/bean/cliente/SolicitaEtiquetas.class
br/com/correios/bsb/sigep/master/bean/cliente/ValidaPlpResponse.class
br/com/correios/bsb/sigep/master/bean/cliente/Acao.class
br/com/correios/bsb/sigep/master/bean/cliente/VerificaDisponibilidadeServicoResponse.class
br/com/correios/bsb/sigep/master/bean/cliente/ServicoSigep.class
br/com/correios/bsb/sigep/master/bean/cliente/CancelarObjetoResponse.class
br/com/correios/bsb/sigep/master/bean/cliente/ContratoERP.class
br/com/correios/bsb/sigep/master/bean/cliente/FechaPlpResponse.class
br/com/correios/bsb/sigep/master/bean/cliente/BuscaTarifaVale.class
br/com/correios/bsb/sigep/master/bean/cliente/ServicoAdicionalTO.class
com/mycompany/view/JFUsuario$1.class
br/com/correios/bsb/sigep/master/bean/cliente/TipoEmbalagem.class
br/com/correios/bsb/sigep/master/bean/cliente/ObterClienteAtualizacaoResponse.class
br/com/correios/bsb/sigep/master/bean/cliente/AtualizaPagamentoNaEntregaResponse.class
br/com/correios/bsb/sigep/master/bean/cliente/PesquisarServicosAdicionais.class
br/com/correios/bsb/sigep/master/bean/cliente/ObterEmbalagemLRS.class
br/com/correios/bsb/sigep/master/bean/cliente/BloquearObjetoResponse.class
br/com/correios/bsb/sigep/master/bean/cliente/Coleta.class
br/com/correios/bsb/sigep/master/bean/cliente/ObterMensagemParametrizada.class
com/mycompany/controller/Conexao.class
com/mycompany/view/JFUsuario$2.class
br/com/correios/bsb/sigep/master/bean/cliente/BuscaContrato.class
br/com/correios/bsb/sigep/master/bean/cliente/BuscaServicos.class
br/com/correios/bsb/sigep/master/bean/cliente/GetStatusPLPResponse.class
br/com/correios/bsb/sigep/master/bean/cliente/Produto.class
com/mycompany/controller/LoginDAO.class
br/com/correios/bsb/sigep/master/bean/cliente/GeraDigitoVerificadorEtiquetas.class
